<?xml version="1.0" encoding="UTF-8" standalone="no"?>
<svg xmlns:osb="http://www.openswatchbook.org/uri/2009/osb" xmlns:dc="http://purl.org/dc/elements/1.1/" xmlns:cc="http://creativecommons.org/ns#" xmlns:rdf="http://www.w3.org/1999/02/22-rdf-syntax-ns#" xmlns:svg="http://www.w3.org/2000/svg" xmlns="http://www.w3.org/2000/svg" xmlns:xlink="http://www.w3.org/1999/xlink" xmlns:sodipodi="http://sodipodi.sourceforge.net/DTD/sodipodi-0.dtd" xmlns:inkscape="http://www.inkscape.org/namespaces/inkscape" sodipodi:docname="artist2.svg" inkscape:version="1.0 (4035a4fb49, 2020-05-01)" id="svg6835" version="1.1" viewBox="0 0 210 297" height="297mm" width="210mm" inkscape:export-xdpi="232" inkscape:export-ydpi="232">
  <defs id="defs6829">
    <linearGradient osb:paint="solid" id="linearGradient1081">
      <stop id="stop1079" offset="0" style="stop-color:#f2f2f2;stop-opacity:1;" />
    </linearGradient>
    <linearGradient id="linearGradient14467">
      <stop id="stop14465" offset="0" style="stop-color:#5755d9;stop-opacity:1;" />
    </linearGradient>
    <linearGradient id="linearGradient14461">
      <stop id="stop14459" offset="0" style="stop-color:#000000;stop-opacity:1;" />
    </linearGradient>
    <linearGradient id="linearGradient9739">
      <stop id="stop9737" offset="0" style="stop-color:#ffffff;stop-opacity:1;" />
    </linearGradient>
    <linearGradient id="linearGradient9660">
      <stop id="stop9658" offset="0" style="stop-color:#5755d9;stop-opacity:1;" />
    </linearGradient>
    <linearGradient id="linearGradient9654">
      <stop id="stop9652" offset="0" style="stop-color:#ffffff;stop-opacity:1;" />
    </linearGradient>
    <linearGradient id="linearGradient9646">
      <stop id="stop9644" offset="0" style="stop-color:#ffffff;stop-opacity:1;" />
    </linearGradient>
    <linearGradient gradientTransform="matrix(0.42352435,-0.07925595,0.04797603,0.54394416,-1330.9552,-164.6078)" osb:paint="solid" id="linearGradient10079">
      <stop id="stop10077" offset="0" style="stop-color:#000000;stop-opacity:1;" />
    </linearGradient>
    <linearGradient gradientUnits="userSpaceOnUse" y2="340.31094" x2="197.56456" y1="340.31094" x1="20.636833" id="linearGradient10072" xlink:href="#linearGradient10070" inkscape:collect="always" />
    <linearGradient osb:paint="solid" id="linearGradient10070">
      <stop id="stop10068" offset="0" style="stop-color:#5755d9;stop-opacity:1;" />
    </linearGradient>
    <linearGradient gradientTransform="matrix(0.00177731,4.1918995e-4,-4.1918995e-4,0.00177731,33.250102,8.2601037)" osb:paint="solid" id="linearGradient5393">
      <stop id="stop5395" offset="0" style="stop-color:#ffffff;stop-opacity:1;" />
    </linearGradient>
    <linearGradient id="linearGradient9667">
      <stop style="stop-color:#000000;stop-opacity:1;" offset="0" id="stop9665" />
    </linearGradient>
    <linearGradient xlink:href="#linearGradient10079" y2="634.28601" y1="36.097" x2="315.12601" x1="55.021" id="F" gradientUnits="userSpaceOnUse" gradientTransform="translate(84.73101,-113.07853)" />
    <linearGradient id="linearGradient8524">
      <stop style="stop-color:white;stop-opacity:1" offset="0" id="stop8526" />
      <stop style="stop-color:white;stop-opacity:0" offset="1" id="stop8528" />
    </linearGradient>
    <filter color-interpolation-filters="sRGB" id="i-3">
      <feGaussianBlur id="feGaussianBlur8968" stdDeviation="9" />
    </filter>
    <filter id="j-0">
      <feGaussianBlur id="feGaussianBlur8971" stdDeviation="9" />
    </filter>
    <filter y="-0.141" x="-0.102" height="1.2819999" width="1.204" id="m">
      <feGaussianBlur id="feGaussianBlur8998" stdDeviation="9.267" />
    </filter>
    <filter y="-0.111" x="-0.126" height="1.221" width="1.251" id="n">
      <feGaussianBlur id="feGaussianBlur9013" stdDeviation="9.291" />
    </filter>
    <filter y="-0.107" x="-0.119" height="1.214" width="1.239" id="o">
      <feGaussianBlur id="feGaussianBlur9001" stdDeviation="9.267" />
    </filter>
    <filter y="-0.141" x="-0.102" height="1.2819999" width="1.204" id="p">
      <feGaussianBlur id="feGaussianBlur9004" stdDeviation="9.267" />
    </filter>
    <filter y="-0.11" x="-0.125" height="1.221" width="1.251" id="q">
      <feGaussianBlur id="feGaussianBlur9007" stdDeviation="9.267" />
    </filter>
    <filter y="-0.107" x="-0.119" height="1.214" width="1.239" id="r">
      <feGaussianBlur id="feGaussianBlur9010" stdDeviation="9.267" />
    </filter>
    <filter y="-0.118" x="-0.118" height="1.235" width="1.235" id="s">
      <feGaussianBlur id="feGaussianBlur9016" stdDeviation="3.136" />
    </filter>
    <linearGradient xlink:href="#b-3" gradientUnits="userSpaceOnUse" gradientTransform="translate(1.875,-533.766)" y2="726.388" y1="593.388" x2="318.297" x1="372.85901" id="y" />
    <linearGradient id="b-3">
      <stop id="stop8917" stop-color="#ff7004" offset="0" />
      <stop id="stop8919" stop-color="#ba4704" offset="1" />
    </linearGradient>
    <linearGradient xlink:href="#g-1" gradientUnits="userSpaceOnUse" gradientTransform="rotate(60,717.317,524.507)" y2="683.48901" y1="637.05902" x2="454.048" x1="277.62701" id="F-5" />
    <linearGradient id="g-1">
      <stop id="stop8942" stop-color="#f7f10e" offset="0" />
      <stop id="stop8944" stop-color="#c58907" offset="1" />
    </linearGradient>
    <linearGradient xlink:href="#f-1" gradientUnits="userSpaceOnUse" gradientTransform="rotate(120,409.147,523.424)" y2="612.48401" y1="725.26898" x2="401.186" x1="253.838" id="G" />
    <linearGradient id="f-1">
      <stop id="stop8937" stop-color="#17b414" offset="0" />
      <stop id="stop8939" stop-color="#176314" offset="1" />
    </linearGradient>
    <linearGradient xlink:href="#e-6" gradientUnits="userSpaceOnUse" gradientTransform="rotate(180,255.062,522.883)" y2="581.76599" y1="701.76599" x2="342.125" x1="326.125" id="H" />
    <linearGradient id="e-6">
      <stop id="stop8932" stop-color="#1476e6" offset="0" />
      <stop id="stop8934" stop-color="#143e9a" offset="1" />
    </linearGradient>
    <linearGradient xlink:href="#d-5" gradientUnits="userSpaceOnUse" gradientTransform="rotate(-120,100.977,522.342)" y2="643.987" y1="694.41803" x2="273.62701" x1="456.97601" id="I" />
    <linearGradient id="d-5">
      <stop id="stop8927" stop-color="#d000d0" offset="0" />
      <stop id="stop8929" stop-color="#760076" offset="1" />
    </linearGradient>
    <linearGradient xlink:href="#c-8" gradientUnits="userSpaceOnUse" gradientTransform="rotate(-60,-207.193,521.26)" y2="710.341" y1="650.05298" x2="263.694" x1="432.11499" id="J" />
    <linearGradient id="c-8">
      <stop id="stop8922" stop-color="#d70016" offset="0" />
      <stop id="stop8924" stop-color="#8d0016" offset="1" />
    </linearGradient>
    <linearGradient xlink:href="#h-9" gradientUnits="userSpaceOnUse" y2="288" y1="224" x2="256" x1="256" id="K" />
    <linearGradient id="h-9">
      <stop id="stop8907" stop-color="#fff" offset="0" />
      <stop id="stop8909" stop-color="#b0b0b0" offset="1" />
    </linearGradient>
    <filter id="R">
      <feGaussianBlur id="feGaussianBlur9022" stdDeviation="4.819" />
    </filter>
    <filter id="S">
      <feGaussianBlur id="feGaussianBlur9025" stdDeviation="4.825" />
    </filter>
    <filter id="T">
      <feGaussianBlur id="feGaussianBlur9031" stdDeviation="5.057" />
    </filter>
    <filter id="U">
      <feGaussianBlur id="feGaussianBlur9034" stdDeviation="4.822" />
    </filter>
    <filter id="V">
      <feGaussianBlur id="feGaussianBlur9019" stdDeviation="4.831" />
    </filter>
    <filter id="W">
      <feGaussianBlur id="feGaussianBlur9028" stdDeviation="5.057" />
    </filter>
    <filter color-interpolation-filters="sRGB" y="-0.096000001" x="-0.096000001" height="1.192" width="1.192" id="X">
      <feGaussianBlur id="feGaussianBlur9037" stdDeviation="1.758" />
    </filter>
    <linearGradient gradientUnits="userSpaceOnUse" y2="211.08601" x2="74.422356" y1="211.08601" x1="70.991615" id="linearGradient9648" xlink:href="#linearGradient5393" inkscape:collect="always" />
    <linearGradient gradientUnits="userSpaceOnUse" gradientTransform="matrix(0.02538865,0.00598807,-0.00598807,0.02538865,474.97204,114.81915)" id="linearGradient9650" xlink:href="#linearGradient10070" inkscape:collect="always" />
    <linearGradient gradientTransform="translate(1591.7109,-592.49213)" gradientUnits="userSpaceOnUse" id="F-8" x1="55.021" x2="315.12601" y1="36.097" y2="634.28601" xlink:href="#linearGradient10079" />
    <linearGradient gradientTransform="translate(1591.7109,-592.49213)" gradientUnits="userSpaceOnUse" y2="330.03299" x2="645.33051" y1="330.03299" x1="-0.074523449" id="linearGradient9607-2" xlink:href="#linearGradient10079" inkscape:collect="always" />
    <linearGradient xlink:href="#linearGradient10079" y2="634.28601" y1="36.097" x2="315.12601" x1="55.021" id="F-8-4" gradientUnits="userSpaceOnUse" gradientTransform="translate(1591.7109,-592.49213)" />
    <linearGradient inkscape:collect="always" xlink:href="#linearGradient5393" id="linearGradient1914" gradientTransform="matrix(0.00176204,4.1293015e-4,-4.1558614e-4,0.00175076,34.39455,9.8638491)" gradientUnits="userSpaceOnUse" />
    <linearGradient inkscape:collect="always" xlink:href="#linearGradient8524" id="linearGradient2896-3" gradientUnits="userSpaceOnUse" x1="231.625" y1="195.1875" x2="231.75" y2="201.5" gradientTransform="matrix(0.13965665,0,0,0.13961296,251.55418,28.823483)" />
    <linearGradient gradientUnits="userSpaceOnUse" y2="51.858334" x2="47.492706" y1="51.858334" x1="-0.1322915" id="linearGradient1083" xlink:href="#linearGradient10070" inkscape:collect="always" />
    <linearGradient y2="51.858334" x2="47.492706" y1="51.858334" x1="-0.1322915" gradientUnits="userSpaceOnUse" id="linearGradient1795" xlink:href="#linearGradient10070" inkscape:collect="always" />
    <linearGradient y2="51.858334" x2="47.492706" y1="51.858334" x1="-0.1322915" gradientUnits="userSpaceOnUse" id="linearGradient1797" xlink:href="#linearGradient10070" inkscape:collect="always" />
    <linearGradient y2="634.28601" x2="315.12601" y1="36.097" x1="55.021" gradientTransform="translate(84.73101,-113.07853)" gradientUnits="userSpaceOnUse" id="linearGradient9500-9" xlink:href="#linearGradient10070" inkscape:collect="always" />
  </defs>
  <sodipodi:namedview fit-margin-bottom="0" fit-margin-right="0" fit-margin-left="0" fit-margin-top="0" inkscape:snap-global="false" showgrid="false" inkscape:document-rotation="0" inkscape:current-layer="layer8" inkscape:document-units="mm" inkscape:cy="474.87114" inkscape:cx="608.3239" inkscape:zoom="0.48945419" inkscape:pageshadow="2" inkscape:pageopacity="0" borderopacity="1.0" bordercolor="#666666" pagecolor="#373737" id="base" />
  <metadata id="metadata6832">
    <rdf:RDF>
      <cc:Work rdf:about="">
        <dc:format>image/svg+xml</dc:format>
        <dc:type rdf:resource="http://purl.org/dc/dcmitype/StillImage" />
        <dc:title></dc:title>
      </cc:Work>
    </rdf:RDF>
  </metadata>
  <g style="display:inline" sodipodi:insensitive="true" inkscape:groupmode="layer" id="layer2" inkscape:label="Background">
    <rect style="opacity:0.992;fill:url(#linearGradient1914);fill-opacity:1;stroke:none;stroke-width:9.89218;stroke-linecap:round;stroke-linejoin:round;stroke-miterlimit:4;stroke-dasharray:none;stroke-dashoffset:34.2836;stroke-opacity:1;paint-order:stroke markers fill;stop-color:#000000" id="rect1910" width="210" height="296.99991" x="-0.016955767" y="8.0138583e-05" />
  </g>
  <g transform="translate(0.05968826,-0.73162559)" style="display:inline" inkscape:label="Blender" id="layer3" inkscape:groupmode="layer">
    <g transform="matrix(0.96838505,0,0,1,4.5862453,0)" id="g2139">
      <g style="display:inline" id="g2381" transform="matrix(5.0534941,-0.67344683,0.67344683,5.0534941,-1275.2955,-700.77678)">
        <g inkscape:transform-center-y="-6.613753" inkscape:transform-center-x="-11.017992" transform="matrix(-0.04918939,-0.20377175,0.20377175,-0.04918939,183.39196,250.40812)" id="g1875">
          <g style="fill:#808080;fill-rule:nonzero;stroke-width:0;stroke-linecap:butt;stroke-linejoin:miter;stroke-miterlimit:4" id="g4165" stroke-miterlimit="4" transform="translate(-0.63683287,1.5502632)">
            <path inkscape:connector-curvature="0" id="path4167" d="m 74.8281,361.191 c 0.0391,2.301 0.7813,6.786 1.8828,10.297 v 0 c 2.3204,7.414 6.2579,14.278 11.7422,20.328 v 0 c 5.625,6.211 12.5429,11.207 20.5429,14.746 v 0 c 8.41,3.727 17.524,5.629 26.973,5.61 v 0 c 9.453,-0.016 18.562,-1.949 26.972,-5.699 v 0 c 7.993,-3.578 14.911,-8.586 20.532,-14.813 v 0 c 5.476,-6.074 9.406,-12.949 11.73,-20.367 v 0 c 1.176,-3.75 1.906,-7.551 2.207,-11.367 v 0 c 0.293,-3.758 0.168,-7.528 -0.363,-11.289 v 0 c -1.043,-7.332 -3.582,-14.215 -7.484,-20.489 -3.583,-5.761 -8.184,-10.808 -13.661,-15.058 v 0 l 0.008,-0.008 v 0 l -55.262,-42.437 v 0 c -0.046,-0.04 -0.093,-0.079 -0.14,-0.118 v 0 c -3.637,-2.777 -9.731,-2.769 -13.715,0.02 v 0 c -4.039,2.824 -4.492,7.484 -0.91,10.433 v 0 l -0.012,0.008 v 0 l 23.051,18.75 -70.2657,0.074 v 0 c -0.0313,0 -0.0625,0 -0.0977,0 v 0 c -5.8047,0.004 -11.3828,3.821 -12.4922,8.633 v 0 c -1.1289,4.907 2.8164,8.973 8.8516,8.996 v 0 l -0.0078,0.024 v 0 l 35.6132,-0.07 -63.5546,48.777 v 0 c -0.0782,0.062 -0.1641,0.121 -0.2422,0.183 v 0 c -5.9883,4.59 -7.9297,12.227 -4.1563,17.059 v 0 c 3.836,4.914 11.9805,4.918 18.0391,0.02 v 0 L 75.293,355.055 c 0,0 -0.5039,3.832 -0.4649,6.136 z m 89.1209,12.825 c -7.144,7.289 -17.144,11.414 -27.976,11.433 v 0 c -10.836,0.02 -20.84,-4.074 -27.989,-11.344 v 0 c -3.492,-3.546 -6.058,-7.613 -7.644,-11.96 v 0 c -1.547,-4.266 -2.1525,-8.79 -1.7541,-13.356 v 0 c 0.3868,-4.469 1.7031,-8.727 3.8321,-12.582 v 0 c 2.09,-3.789 4.961,-7.211 8.504,-10.109 v 0 c 6.945,-5.664 15.785,-8.727 25.043,-8.739 v 0 c 9.258,-0.011 18.094,3.028 25.043,8.668 v 0 c 3.539,2.883 6.41,6.293 8.496,10.075 v 0 c 2.129,3.851 3.449,8.101 3.84,12.57 v 0 c 0.394,4.566 -0.207,9.09 -1.758,13.359 v 0 c -1.582,4.352 -4.145,8.426 -7.637,11.985 z" style="fill:url(#linearGradient10072);fill-opacity:1" />
          </g>
        </g>
      </g>
      <g style="display:inline" transform="matrix(1.4258753,-0.36156453,0.36156453,1.4258753,-278.99478,-126.32069)" id="g15044-6">
        <g id="g11041-1" transform="translate(7.1599457,-26.161837)">
          <g transform="matrix(0.04247244,0.02346609,-0.02134834,0.0466857,131.82672,228.10338)" fill-rule="evenodd" id="g9539-1">
            <ellipse transform="rotate(17.610818)" style="fill:url(#F-8);fill-opacity:1;stroke:url(#linearGradient9607-2)" cx="1914.3389" cy="-262.45914" fill="url(#F)" stroke="#000" stroke-width="13.263" rx="316.07101" ry="323.32599" id="ellipse9521-5" />
          </g>
        </g>
      </g>
    </g>
  </g>
  <g transform="translate(0.05968826,-0.73162559)" style="display:inline" inkscape:label="LibreOffice" id="layer6" inkscape:groupmode="layer">
    <g id="g10888" transform="matrix(1.6081779,0.13878348,-0.00833028,1.6052263,-337.74141,-260.06137)" style="display:inline">
      <g transform="matrix(0.03836319,-0.12167006,0.13694926,0.07714527,217.95991,261.55604)" id="g14905">
        <path inkscape:connector-curvature="0" d="M 122.58296,9.694659 H 8.410107 V 254.62959 H 209.4324 V 96.513601 Z" id="sheet" style="fill:url(#linearGradient5393);stroke:url(#linearGradient10079);stroke-width:18.9539;stroke-linejoin:round;stroke-miterlimit:4;stroke-dasharray:none" />
        <path inkscape:connector-curvature="0" d="M 212.5,61.53125 V 6.5 h -55 z" id="corner" style="fill:url(#linearGradient10079);stroke:#000000;stroke-width:19.4232;stroke-linejoin:round;stroke-miterlimit:4;stroke-dasharray:none" />
      </g>
    </g>
  </g>
  <g transform="translate(0.05968826,-0.73162559)" style="display:inline" inkscape:label="GIMP" id="layer4" inkscape:groupmode="layer">
    <path inkscape:connector-curvature="0" id="path13818" d="m 200.61226,136.44083 c -4.23027,-2.11882 -9.24094,-4.33968 -14.14425,-6.26908 -1.01043,-0.39741 -1.8754,-0.77363 -2.22217,-0.96586 -2.48883,-1.3799 -4.20867,-3.6299 -4.79172,-6.26866 -0.053,-0.24392 -0.11679,-0.45967 -0.13969,-0.4813 -0.0243,-0.0276 -2.67837,-0.996 -5.90034,-2.16525 -3.22199,-1.1691 -5.93315,-2.16921 -6.02467,-2.22254 -0.1495,-0.0876 -0.18633,-0.0899 -0.3659,-0.0248 -1.72974,0.61471 -3.07769,-0.74323 -3.11208,-3.13545 l -0.0113,-0.68039 -1.13061,-0.4532 c -7.4272,-2.97921 -17.12955,-8.3939 -26.22294,-14.634181 -1.11528,-0.765431 -1.75858,-1.43761 -1.95086,-2.038741 -0.0967,-0.300856 1.10555,-1.65255 1.96966,-2.214499 0.63365,-0.41258 0.62528,-0.41095 1.24655,-0.196978 0.28791,0.09946 1.19519,0.388273 2.01469,0.641303 10.153,3.134964 20.63502,7.533456 27.18399,11.407046 l 0.56186,0.33196 0.46505,-0.39474 c 0.74247,-0.63071 1.15436,-0.88572 1.64419,-1.01781 0.98617,-0.26514 2.0961,0.26184 2.55368,1.21424 0.15386,0.321 0.19662,0.36777 0.42829,0.47365 0.14139,0.065 2.59051,1.60767 5.44244,3.4285 l 5.18556,3.31055 0.34124,-0.12931 c 3.17799,-1.20857 7.30809,-0.50484 9.69591,1.65121 2.81518,2.54245 4.22796,5.76425 7.272,16.58391 0.44463,1.58036 0.93505,3.30372 1.08998,3.8295 0.28856,0.98047 0.31009,1.07265 0.24315,1.06809 -0.0259,-0.002 -0.61685,-0.29222 -1.3237,-0.64631 z m -21.32021,-16.50402 c -0.003,-1.04163 0.83774,-3.04498 1.71014,-4.07823 0.24432,-0.28921 0.2819,-0.3585 0.22372,-0.41298 -0.0407,-0.0357 -1.21542,-0.7902 -2.61537,-1.67688 -1.39986,-0.88659 -3.52573,-2.23482 -4.72424,-2.99611 l -2.17905,-1.38414 -0.33982,-0.0298 c -0.7176,-0.0618 -0.66158,-0.008 -0.91401,-0.76495 -0.27,-0.80257 -0.21836,-0.75473 -0.54435,-0.50704 -1.55124,1.18033 -3.27242,4.02664 -3.64227,6.02316 -0.11466,0.61765 -0.0913,1.65373 0.0399,1.78474 0.0113,0.009 0.33133,-0.0956 0.70863,-0.23536 l 0.68484,-0.25893 0.15573,0.13817 c 0.0853,0.0761 0.26593,0.24333 0.40159,0.36977 0.24178,0.22803 0.34035,0.2653 5.60162,2.17801 6.05229,2.20009 5.43243,1.98906 5.43213,1.84905 z m -58.33476,-3.19699 c -12.94596,-0.47906 -27.327308,-4.80218 -40.384719,-12.14023 -1.770734,-0.99511 -5.337638,-3.17389 -5.424197,-3.3132 -0.0085,-0.0246 0.231696,-0.17952 0.549687,-0.34328 6.694875,-3.439378 9.558676,-12.666209 6.71956,-21.649429 -0.06043,-0.183276 -0.105727,-0.349536 -0.105698,-0.368571 -8.08e-4,-0.01533 0.282413,0.093 0.6288,0.25 6.895825,3.117863 14.87443,0.23755 18.146007,-6.551566 0.16665,-0.347262 0.31625,-0.598644 0.32985,-0.558283 0.0102,0.03979 0.0987,0.327841 0.18792,0.638179 2.75814,9.579364 13.76254,14.352193 22.72288,9.855477 10.71516,-5.377435 12.02246,-20.192808 2.4156,-27.37412 -8.43136,-6.302472 -20.85212,-2.798707 -24.60387,6.940479 -0.27372,0.709418 -0.26491,0.702125 -0.3764,0.347955 -2.507353,-8.023525 -11.865209,-11.864362 -19.416739,-7.969163 -4.330432,2.233624 -7.417383,7.07971 -7.406918,11.62787 l 4.48e-4,0.350711 -0.836193,-0.793931 c -0.815477,-0.774319 -1.485718,-1.365399 -2.032239,-1.792644 -0.312927,-0.244777 -0.310239,-0.139702 -0.03877,-1.267323 0.716799,-2.970338 2.217959,-5.662288 4.429498,-7.943633 l 0.701401,-0.723518 0.188863,-8.546335 c 0.103918,-4.700575 0.188231,-8.615529 0.188053,-8.699855 -8.68e-4,-0.122293 0.08154,-0.0057 0.40429,0.563724 2.486102,4.404897 6.42708,8.840723 10.591652,11.921236 l 0.51977,0.384367 0.631662,0.03412 c 4.020173,0.206941 7.762869,1.845757 10.628362,4.653781 l 0.83892,0.822111 0.62099,0.129664 0.62103,0.12914 0.87645,-0.879645 c 6.35251,-6.37549 15.77486,-7.694407 23.46716,-3.285214 0.9982,0.571959 2.38313,1.555428 3.09012,2.193764 l 0.31794,0.286283 0.70931,-0.15933 c 18.50581,-4.1376 31.86723,-14.093322 36.25263,-27.012408 1.2997,-3.828864 3.08415,-3.735853 3.56992,0.18604 0.50246,4.040586 1.00371,10.553689 1.25659,16.258662 0.0943,2.124544 0.1141,10.825202 0.0293,12.707778 -0.63756,14.1329 -2.70494,24.520683 -6.73861,33.859491 -1.356,3.139407 -3.93579,7.746842 -5.32865,9.516989 l -0.0919,0.116656 -0.92409,-0.414887 c -4.08734,-1.834516 -8.62872,-3.593715 -13.63965,-5.28355 l -1.71804,-0.579256 -0.15243,-0.244563 c -1.19874,-1.929746 -3.84354,-3.700779 -7.93288,-5.312173 -1.10385,-0.43537 -3.08194,-1.110764 -3.16725,-1.082062 -0.0246,0.0085 0.31963,0.337491 0.76678,0.731535 1.46295,1.286399 3.92768,3.832343 3.9282,4.057443 -8.2e-4,0.225385 -3.11682,2.197441 -4.86105,3.075773 -5.83768,2.939806 -14.16069,4.300517 -22.8237,3.731326 -4.2181,-0.277308 -10.964592,-1.167272 -13.250947,-1.748353 -0.367212,-0.09251 0.234605,0.13177 1.438922,0.537608 15.031225,5.06746 26.605405,6.28038 33.985885,3.56164 l 0.55174,-0.203647 0.78389,0.557007 c 4.32819,3.07641 10.09232,6.77723 14.55172,9.34296 0.33247,0.19074 0.61482,0.36398 0.62764,0.3849 0.0463,0.0771 -1.81286,1.13143 -3.27969,1.85753 -6.74442,3.33817 -15.01326,4.95021 -23.73626,4.62751 z M 67.299054,99.244613 C 54.862537,98.31752 43.439807,82.091204 46.838542,70.180012 49.892677,59.476806 63.171231,58.921011 72.677879,69.098653 c 12.033814,12.882987 8.7655,31.200397 -5.378825,30.14596 z M 57.544828,80.095435 c 4.285404,-1.097601 6.150798,-7.326801 3.446566,-11.509038 -2.822287,-4.364931 -8.5892,-3.390065 -10.278007,1.737425 -1.780824,5.407254 2.114837,10.979654 6.831448,9.771664 z m 62.485642,-1.91776 c -3.35815,-0.382292 -6.05674,-2.81555 -6.78014,-6.113018 -0.11722,-0.532237 -0.18206,-1.713586 -0.11869,-2.133389 l 0.0402,-0.281037 0.28853,0.409013 c 1.51155,2.142853 4.3875,2.87074 6.7485,1.707882 3.2779,-1.61437 4.04034,-5.901029 1.5172,-8.529814 l -0.39427,-0.411377 0.17771,0.002 c 2.14143,-0.0051 4.81333,1.694104 6.07428,3.862588 3.13013,5.383208 -1.34958,12.196721 -7.5545,11.489948 z M 91.096843,75.267541 c -3.455417,-0.427499 -6.156686,-3.67437 -5.810013,-6.982926 l 0.03496,-0.343598 0.204137,0.304534 c 1.954478,2.912301 6.348972,2.632545 7.902062,-0.502987 0.900703,-1.818432 0.553432,-3.873578 -0.897615,-5.311488 l -0.324173,-0.321455 0.308629,0.03499 c 5.349575,0.615492 7.83376,6.728869 4.402505,10.833819 -1.373659,1.643329 -3.687885,2.553592 -5.821021,2.289386 z" style="display:inline;fill:url(#linearGradient10079);fill-opacity:1;stroke-width:0.0513442" />
  </g>
  <g transform="translate(0.05968826,-0.73162559)" style="display:inline" inkscape:label="darktable" id="layer8" inkscape:groupmode="layer">
    <path style="display:inline;fill:none;stroke:#000000;stroke-width:1.3;stroke-linecap:round;stroke-linejoin:miter;stroke-miterlimit:4;stroke-dasharray:none;stroke-opacity:1" d="m 111.4804,127.28631 c -8.30194,-4.35139 -14.022215,-9.01727 -19.718476,-14.92943" id="path2741" sodipodi:nodetypes="cc" />
    <path sodipodi:nodetypes="cc" id="path2741-9" d="m 128.14204,127.88276 c 9.23631,-4.84113 15.60039,-10.03215 21.93776,-16.60972" style="display:inline;fill:none;stroke:#000000;stroke-width:1.3;stroke-linecap:round;stroke-linejoin:miter;stroke-miterlimit:4;stroke-dasharray:none;stroke-opacity:1" />
    <g transform="matrix(0.03923998,0.01085254,-0.01138336,0.03751028,112.75382,119.47551)" id="g9511-0" style="display:inline">
      <circle transform="translate(-510.30855,167.96006)" style="display:inline;fill:url(#linearGradient10079);fill-opacity:1;stroke-width:110.748;stroke-linecap:round;stroke-linejoin:round;stroke-dashoffset:34.2836;paint-order:markers stroke fill;stop-color:#000000" id="path9498-2" cx="767.25336" cy="85.455399" r="203.66769" />
      <path style="fill:url(#linearGradient10070);stroke:url(#linearGradient10079);stroke-width:21.2803;stroke-linecap:round;stroke-linejoin:round;stroke-miterlimit:4;stroke-dasharray:none;paint-order:stroke fill markers" fill="url(#y)" d="m 303.203,32.669 -55.469,157.906 218.438,-36.75 C 433.818,91.69 374.213,46.032 303.203,32.669 Z" id="path9065-7" />
      <path fill="url(#F)" d="M 473.012,185.213 308.527,216.13 449.572,386.928 c 37.633,-59.087 47.373,-133.536 23.44,-201.714 z" id="path9067-61" style="fill:url(#linearGradient9500-9);fill-opacity:1;stroke:url(#linearGradient10079);stroke-width:21.2803;stroke-linecap:round;stroke-linejoin:round;stroke-miterlimit:4;stroke-dasharray:none;paint-order:stroke fill markers" />
      <path style="fill:url(#linearGradient10070);stroke:url(#linearGradient10079);stroke-width:21.2803;stroke-linecap:round;stroke-linejoin:round;stroke-miterlimit:4;stroke-dasharray:none;paint-order:stroke fill markers" fill="url(#G)" d="M 425.809,408.545 316.793,281.555 239.4,489.101 c 69.988,3.047 139.331,-25.742 186.409,-80.557 z" id="path9069-3" />
      <path style="fill:url(#linearGradient10070);stroke:url(#linearGradient10079);stroke-width:21.2803;stroke-linecap:round;stroke-linejoin:round;stroke-miterlimit:4;stroke-dasharray:none;paint-order:stroke fill markers" fill="url(#H)" d="m 208.797,479.331 55.469,-157.906 -218.438,36.75 c 32.354,62.135 91.959,107.793 162.969,121.156 z" id="path9071-2" />
      <path style="fill:url(#linearGradient10070);stroke:url(#linearGradient10079);stroke-width:21.2803;stroke-linecap:round;stroke-linejoin:round;stroke-miterlimit:4;stroke-dasharray:none;paint-order:stroke fill markers" fill="url(#I)" d="M 38.988,326.787 203.473,295.871 62.428,125.073 C 24.795,184.16 15.055,258.61 38.988,326.787 Z" id="path9073-1" />
      <path style="fill:url(#linearGradient10070);stroke:url(#linearGradient10079);stroke-width:21.2803;stroke-linejoin:round;stroke-miterlimit:4;stroke-dasharray:none;paint-order:stroke fill markers" fill="url(#J)" d="M 86.191,103.455 195.207,230.445 272.6,22.899 C 202.612,19.851 133.269,48.64 86.19,103.455 Z" id="path9075-5" />
      <path style="fill:url(#linearGradient5393)" fill="url(#K)" d="m 288,256 a 32,32 0 1 1 -64,0 32,32 0 1 1 64,0 z" id="path9077-9" />
    </g>
  </g>
  <g style="display:inline" inkscape:label="Glimpse" id="layer5" inkscape:groupmode="layer">
    <g inkscape:transform-center-y="4.858251" inkscape:transform-center-x="3.0767053" id="root" style="display:inline;fill:none;fill-rule:evenodd;stroke:none;stroke-width:1" transform="matrix(-0.06021363,0.06853995,0.06809163,0.06471435,149.8954,22.788205)">
      <g style="stroke:url(#linearGradient10079);stroke-width:2.29428;stroke-miterlimit:4;stroke-dasharray:none" id="frame_back" transform="matrix(3.7559866,0,0,3.7559866,1.6323544,-1.2295061)">
        <path style="fill:#5755d9;fill-opacity:1;stroke:url(#linearGradient10079);stroke-width:2.29428;stroke-miterlimit:4;stroke-dasharray:none" d="m 37.835417,3.938415 c 0,-1.6900807 0.671679,-2.97524065 1.867252,-3.57282944 1.195575,-0.59758881 2.817135,-0.45838079 4.507904,0.38692418 9.057214,4.52664266 25.552784,12.77167426 34.609998,17.29831626 1.691246,0.845306 3.312594,2.326839 4.508222,4.119605 1.195626,1.792767 1.86704,3.749618 1.86704,5.4397 v 34.597057 c 0,1.690184 -0.671414,2.975451 -1.86704,3.572986 -1.195628,0.59759 -2.816976,0.458541 -4.508222,-0.386554 C 69.763357,60.866713 53.267787,52.621894 44.210573,48.09504 42.519804,47.249948 40.898244,45.768043 39.702669,43.97533 38.507096,42.182669 37.835417,40.226028 37.835417,38.535843 Z" id="use47" inkscape:connector-curvature="0" />
      </g>
      <g id="pic/moon" transform="translate(270,90)">
        <path inkscape:connector-curvature="0" id="moon" d="M 0,17.110352 C 0,5.3993418 5.4617672,-1.3871131 12.751199,0.23898357 11.689806,2.9078808 11.093323,6.2402085 11.093323,10.11035 c 0,13.489851 7.247007,28.405571 16.186645,33.315194 1.178536,0.647249 2.327655,1.088281 3.434629,1.335311 -2.638852,6.633117 -8.153033,9.165779 -14.527952,5.664691 C 7.2470079,45.515923 0,30.600202 0,17.110352 Z" style="fill:#000000" />
      </g>
      <g style="stroke:url(#linearGradient10079);stroke-width:2.29428;stroke-miterlimit:4;stroke-dasharray:none" id="frame_mid" transform="matrix(3.7559866,0,0,3.7559866,1.6323544,-1.2295061)">
        <path style="fill:#ffffff;stroke:url(#linearGradient10079);stroke-width:2.29428;stroke-miterlimit:4;stroke-dasharray:none;stroke-opacity:1" d="m 19.05,13.198832 c 0,-1.690081 0.671679,-2.975241 1.867253,-3.5728297 1.195573,-0.597589 2.817135,-0.4583808 4.507904,0.3869237 9.057214,4.526643 25.552783,12.771675 34.609997,17.298318 1.691246,0.845304 3.312594,2.326839 4.508222,4.119605 1.195626,1.792766 1.867041,3.749617 1.867041,5.439698 v 34.597057 c 0,1.690188 -0.671415,2.975452 -1.867041,3.572987 -1.195628,0.59759 -2.816976,0.458541 -4.508222,-0.386554 C 50.97794,70.12713 34.482371,61.882311 25.425157,57.355457 23.734388,56.510364 22.112826,55.02846 20.917253,53.235746 19.721679,51.443086 19.05,49.486444 19.05,47.796259 Z" id="use56" inkscape:connector-curvature="0" />
      </g>
      <path inkscape:connector-curvature="0" id="picture_mid" d="m 212.7575,183.5 c 4.89042,0 9.5123,2.23656 12.54694,6.07155 l 25.69554,32.47242 2e-5,48.06981 c 0,6.38811 -2.53763,11.2458 -7.05653,13.5042 -4.51891,2.25861 -10.64684,1.73307 -17.03895,-1.46099 -34.23199,-17.10957 -96.57745,-48.27109 -130.80944,-65.38046 -6.390305,-3.19405 -12.519043,-8.79495 -17.037746,-15.57056 -3.860095,-5.78788 -6.275251,-12.02803 -6.897275,-17.70632 z" style="fill:#000000;stroke:#000000" />
      <g style="fill:url(#linearGradient1083);fill-opacity:1;stroke:url(#linearGradient10079);stroke-width:2.29428;stroke-miterlimit:4;stroke-dasharray:none" id="frame_front" transform="matrix(3.7559866,0,0,3.7559866,1.6323544,-1.2295061)">
        <path style="fill:url(#linearGradient1795);fill-opacity:1;stroke:url(#linearGradient10079);stroke-width:2.29428;stroke-miterlimit:4;stroke-dasharray:none" d="m 0,22.723832 c 0,-1.690081 0.67167945,-2.975241 1.867253,-3.57283 1.1955735,-0.597589 2.8171354,-0.458381 4.5079036,0.386924 9.0572144,4.526643 25.5527834,12.771676 34.6099974,17.298318 1.691246,0.845304 3.312594,2.326839 4.508222,4.119605 1.195626,1.792766 1.867041,3.749617 1.867041,5.439698 v 34.597057 c 0,1.690188 -0.671415,2.975452 -1.867041,3.572987 -1.195628,0.59759 -2.816976,0.458541 -4.508222,-0.386554 C 31.92794,79.65213 15.432371,71.407311 6.3751566,66.880457 4.6843884,66.035364 3.0628265,64.55346 1.867253,62.760746 0.67167945,60.968086 0,59.011444 0,57.321259 Z" id="use60" inkscape:connector-curvature="0" />
        <path style="fill:url(#linearGradient1797);fill-opacity:1;stroke:url(#linearGradient10079);stroke-width:2.29428;stroke-miterlimit:4;stroke-dasharray:none" d="m 0,22.723832 c 0,-1.690081 0.67167945,-2.975241 1.867253,-3.57283 1.1955735,-0.597589 2.8171354,-0.458381 4.5079036,0.386924 9.0572144,4.526643 25.5527834,12.771676 34.6099974,17.298318 1.691246,0.845304 3.312594,2.326839 4.508222,4.119605 1.195626,1.792766 1.867041,3.749617 1.867041,5.439698 v 34.597057 c 0,1.690188 -0.671415,2.975452 -1.867041,3.572987 -1.195628,0.59759 -2.816976,0.458541 -4.508222,-0.386554 C 31.92794,79.65213 15.432371,71.407311 6.3751566,66.880457 4.6843884,66.035364 3.0628265,64.55346 1.867253,62.760746 0.67167945,60.968086 0,59.011444 0,57.321259 Z" id="use62" inkscape:connector-curvature="0" />
      </g>
      <path inkscape:connector-curvature="0" id="picture_front" d="M 60.683486,185.57782 141.44177,311.42813 C 106.09303,293.7603 54.213015,267.82967 24.09508,252.77653 17.704775,249.58248 11.576037,243.98158 7.057334,237.20597 2.538631,230.43056 0,223.03538 0,216.64728 v -34.67771 l 45.933077,-3.69908 c 5.888815,-0.47427 11.559771,2.33511 14.750409,7.30733 z" style="fill:#000000" />
    </g>
  </g>
  <g transform="translate(0.05968826,-0.73162559)" style="display:inline" inkscape:label="Inkscape" id="layer7" inkscape:groupmode="layer">
    <g style="display:inline" id="g9220" transform="matrix(0.26458333,0,0,0.26458333,130.2214,37.894622)">
      <g transform="translate(510.30855,-167.96006)" id="g9079" />
    </g>
    <g id="g1667" transform="matrix(1.1276042,0.04705407,0.13612973,1.1199075,-11.160577,-24.908361)">
      <g style="display:inline;stroke-width:0.605481" transform="matrix(-0.58486955,0.84570717,1.0046094,0.6636149,140.13855,-71.734972)" id="g2966-6-0">
        <path inkscape:transform-center-y="0.51828111" inkscape:transform-center-x="-13.999815" inkscape:connector-curvature="0" sodipodi:nodetypes="cccccccccccccc" style="fill:#000000;fill-opacity:1;stroke-width:0.163662" d="m 269.07135,36.209418 -10.46773,11.194987 c -3.73198,4.016971 2.38085,3.157454 4.75743,5.16194 1.13848,0.7213 -3.57659,1.765378 -2.59051,2.728314 0.95996,0.96343 5.71013,1.77569 6.66958,2.712602 0.95993,0.96343 -1.87084,2.051507 -0.9109,3.014937 0.93379,0.963922 3.11284,-0.0057 3.54719,2.21447 0.31875,1.638753 4.04264,0.746039 5.68963,-0.691085 1.02896,-0.921405 -1.82136,-0.867575 -0.89854,-1.86656 2.30786,-2.457692 4.42489,-1.171241 5.24572,-3.415148 0.44814,-1.202252 -3.59498,-1.974809 -2.53737,-2.764114 2.52809,-1.878218 11.92447,-2.98418 7.50036,-7.304378 L 273.69113,35.817395 c -1.41101,-1.299782 -3.36352,-0.958132 -4.61978,0.392023 z" id="use7631-1-9" />
        <path inkscape:connector-curvature="0" sodipodi:nodetypes="ccccccccccccccccccccccc" style="fill:none;stroke-width:0.159627" d="M 269.08463,36.017279 258.2211,47.141011 c -4.11338,4.11209 2.66314,3.769416 5.11535,5.32463 1.13382,0.738067 -3.63876,1.687011 -2.66315,2.662315 0.94924,0.975303 5.72182,1.871528 6.67106,2.820472 0.94924,0.975304 -1.92485,2.003326 -0.97561,2.97863 0.92287,0.975303 3.13777,0.05272 3.53328,2.266921 0.29005,1.634293 4.06065,0.817147 5.74819,-0.57991 1.05471,-0.896225 -1.81938,-0.896225 -0.87014,-1.871528 2.3731,-2.39872 4.48252,-1.080742 5.35266,-3.294944 0.47462,-1.18618 -3.58602,-2.029686 -2.50494,-2.794113 2.58405,-1.818809 12.07645,-2.741394 7.6994,-7.11708 L 274.06815,36.017279 c -1.3975,-1.317977 -3.6915,-1.317977 -4.98352,0 z m 12.47197,21.430318 c 0,0.55355 4.29796,0.869865 4.06065,-0.131798 -0.34279,-1.687012 -3.58603,-1.555214 -4.06065,0.131798 z m -18.32562,2.92591 c 0.97561,0.843506 2.45221,-0.184517 2.92683,-1.370697 -0.94925,-1.238899 -4.45616,0.07908 -2.92683,1.370697 z m 17.79827,-1.76609 c -1.21292,1.107101 0.21094,2.266922 1.39749,1.502495 0.31641,-0.210877 -0.0264,-1.238899 -1.39749,-1.502495 z" id="use7639-1-2" />
        <path style="fill:url(#linearGradient10070);fill-opacity:1" inkscape:connector-curvature="0" id="path7643-5-5" d="m 259.18753,47.757659 c -2.9537,2.926182 2.23524,2.101531 6.22674,3.671026 l 8.24908,-14.497892 c -1.25066,-1.27688 -2.84726,-1.170472 -3.99149,0 z" />
        <path inkscape:connector-curvature="0" d="m 273.53083,36.742033 4.17607,4.441719 c 0.39552,0.395393 0.39552,1.212539 0.15821,1.449775 l -2.13579,-1.73973 -0.42189,2.556876 -1.76664,-0.948943 -2.87409,1.818809 -0.94924,-3.822136 -1.52933,3.321304 -3.82333,-0.02636 c -0.7383,0 -0.88862,-0.612142 0.13183,-1.528854 1.50297,-1.660652 4.38532,-4.550911 5.30819,-5.526214 0.94924,-0.975304 2.68355,-1.06659 3.72601,0.0038 z" style="fill:#ffffff;stroke-width:0.159627" class="full-specularity" id="icecap-7-9-4" sodipodi:nodetypes="ccccccccccccc" />
      </g>
    </g>
  </g>
</svg>
